<?xml version="1.0" encoding="UTF-8" standalone="no"?>
<!-- Created with Inkscape (http://www.inkscape.org/) -->

<svg
   xmlns:dc="http://purl.org/dc/elements/1.1/"
   xmlns:cc="http://creativecommons.org/ns#"
   xmlns:rdf="http://www.w3.org/1999/02/22-rdf-syntax-ns#"
   xmlns:svg="http://www.w3.org/2000/svg"
   xmlns="http://www.w3.org/2000/svg"
   xmlns:sodipodi="http://sodipodi.sourceforge.net/DTD/sodipodi-0.dtd"
   xmlns:inkscape="http://www.inkscape.org/namespaces/inkscape"
   width="80"
   height="80"
   viewBox="0 0 80 80.000001"
   id="svg4246"
   version="1.1"
   inkscape:version="0.91 r13725"
   sodipodi:docname="_devpkg.svg">
  <defs
     id="defs4248" />
  <sodipodi:namedview
     id="base"
     pagecolor="#ffffff"
     bordercolor="#666666"
     borderopacity="1.0"
     inkscape:pageopacity="0.0"
     inkscape:pageshadow="2"
     inkscape:zoom="0.93"
     inkscape:cx="-28.494624"
     inkscape:cy="171.6129"
     inkscape:document-units="px"
     inkscape:current-layer="layer1"
     showgrid="false"
     units="px"
     inkscape:window-width="1304"
     inkscape:window-height="745"
     inkscape:window-x="54"
     inkscape:window-y="-8"
     inkscape:window-maximized="1" />
  <metadata
     id="metadata4251">
    <rdf:RDF>
      <cc:Work
         rdf:about="">
        <dc:format>image/svg+xml</dc:format>
        <dc:type
           rdf:resource="http://purl.org/dc/dcmitype/StillImage" />
        <dc:title></dc:title>
      </cc:Work>
    </rdf:RDF>
  </metadata>
  <g
     inkscape:label="Layer 1"
     inkscape:groupmode="layer"
     id="layer1"
     transform="translate(0,-972.36216)">
    <g
       style="opacity:1;fill:#ffffff;fill-opacity:1;stroke:#ffffff;stroke-width:3.85806561;stroke-linecap:round;stroke-linejoin:round;stroke-miterlimit:4;stroke-dasharray:none;stroke-opacity:1"
       transform="matrix(1.2067051,0,0,1.2067051,-287.18443,377.43739)"
       id="g5508">
      <path
         id="path5518"
         style="opacity:1;fill:#ffffff;fill-opacity:1;fill-rule:evenodd;stroke:#ffffff;stroke-width:3.85806561;stroke-linecap:round;stroke-linejoin:round;stroke-miterlimit:4;stroke-dasharray:none;stroke-opacity:1"
         d="m 254.70019,504.9262 25.7164,12.7812 0.15399,10.62534 8.31548,-5.69764 m 0,0 -0.15399,-8.93145 -25.7164,-12.7812 -8.31548,4.00375 m 4.16134,-1.99526 25.7092,13.07594 m -13.43205,6.85568 0,33.01372 -26.41097,-13.20549 0,-33.01372 z m 0,0 0,33.01372 26.41098,-13.20549 0,-33.01372 z m 0,-26.41071 -26.41097,13.20549 26.41097,13.20549 26.41098,-13.20549 z"
         inkscape:connector-curvature="0" />
    </g>
    <g
       id="g5496"
       transform="matrix(1.2067051,0,0,1.2067051,-287.18443,377.43733)"
       style="opacity:1;fill:#1a1a1a;fill-opacity:1">
      <path
         id="path5498"
         d="m 30,2.3622 -20,10 20,10 20,-10 z"
         sodipodi:nodetypes="ccccc"
         style="fill:#666666;fill-opacity:1"
         inkscape:connector-curvature="0"
         transform="matrix(1.3205488,0,0,1.3205488,231.52222,493.33245)" />
      <path
         id="path5500"
         sodipodi:nodetypes="ccccc"
         style="fill:#4d4d4d;fill-opacity:1"
         inkscape:connector-curvature="0"
         d="m 30,22.362 0,25 20,-10 0,-25 z"
         transform="matrix(1.3205488,0,0,1.3205488,231.52222,493.33245)" />
      <path
         id="path5502"
         d="m 30,22.362 0,25 -20,-10 0,-25 z"
         sodipodi:nodetypes="ccccc"
         style="fill:#333333;fill-opacity:1"
         inkscape:connector-curvature="0"
         transform="matrix(1.3205488,0,0,1.3205488,231.52222,493.33245)" />
      <path
         sodipodi:nodetypes="cc"
         inkscape:connector-curvature="0"
         id="path5504"
         d="m 258.86153,502.93094 25.7092,13.07594"
         style="opacity:0.294;fill:#1a1a1a;fill-opacity:1;fill-rule:evenodd;stroke:#000000;stroke-width:1.01132286px;stroke-linecap:butt;stroke-linejoin:miter;stroke-opacity:1" />
      <path
         d="m 254.70019,504.9262 25.7164,12.7812 0.15399,10.62534 8.31548,-5.69764 m 0,0 -0.15399,-8.93145 -25.7164,-12.7812 -8.31548,4.00375"
         style="opacity:0.369;fill:#ffffff;fill-opacity:1;fill-rule:evenodd;stroke:none;stroke-width:1px;stroke-linecap:butt;stroke-linejoin:miter;stroke-opacity:1"
         id="path5506"
         inkscape:connector-curvature="0"
         sodipodi:nodetypes="cccccccc" />
    </g>
  </g>
</svg>
